<svg width="80" height="80" viewBox="0 0 80 80" fill="none" xmlns="http://www.w3.org/2000/svg">
<g clip-path="url(#clip0_97:94)">
<path d="M77.42 52.48V7.74213H67.0977V44.8C71.9909 46.8815 75.6149 49.52 77.42 52.48Z" fill="#FFCA1A"/>
<path d="M25.8067 41.1682V20.6454H15.4844V43.7981C18.844 42.6292 22.2973 41.7494 25.8067 41.1682Z" fill="#FFCA1A"/>
<path d="M12.9034 44.8008V28.3876H2.58105V52.4808C4.3861 49.5208 8.00785 46.8816 12.9034 44.8008Z" fill="#FFCA1A"/>
<path d="M64.5167 43.798V15.4843H54.1943V41.1681C57.7037 41.7493 61.157 42.6292 64.5167 43.798Z" fill="#FFCA1A"/>
<path d="M41.7322 14.2998L42.5811 21.9363L40.0009 25.8081L37.4199 21.9355L38.2689 14.2982L41.7322 14.2998Z" fill="#FFCA1A"/>
<path d="M45.2918 44.1266H45.162V50.8567C49.7197 51.8532 52.9042 54.1266 52.9042 56.7712C52.9042 60.3339 47.1271 63.2225 40.0009 63.2225C32.8747 63.2225 27.0976 60.3332 27.0976 56.7712C27.0976 54.1258 30.282 51.8524 34.8397 50.8567V44.1227L34.7092 44.1289C23.0316 45.3056 15.4844 50.2695 15.4844 56.7743C15.4844 64.372 25.5659 69.68 40.0009 69.68C54.4358 69.68 64.5174 64.3743 64.5174 56.7767C64.5174 50.2718 56.9702 45.3079 45.2925 44.1312L45.2918 44.1266Z" fill="#FFCA1A"/>
<path d="M9.6124 62.6959L11.0314 60.5398C8.60579 58.9421 7.74133 57.5472 7.74133 56.7744C7.74133 56.4093 7.94482 55.3965 9.83842 53.8726L8.22055 51.861C6.219 53.4726 5.16113 55.1705 5.16113 56.7744C5.16113 58.7309 6.70055 60.7782 9.6124 62.6959Z" fill="white"/>
<path d="M15.965 63.0446C15.0826 62.6897 14.2461 62.3169 13.4795 61.934L12.3269 64.2423C13.1564 64.6563 14.0558 65.0594 15.0019 65.44L15.965 63.0446Z" fill="white"/>
<path d="M72.2587 56.7736H74.8397C74.8171 55.8939 74.5459 55.0387 74.0575 54.3068L71.8704 55.6769C72.0966 56.0006 72.2308 56.3796 72.2587 56.7736Z" fill="white"/>
<path d="M72.0676 52.1033C71.3578 51.5105 70.6049 50.9713 69.8152 50.4901L68.4614 52.6873C69.1421 53.1005 69.7911 53.5637 70.4032 54.073L72.0676 52.1033Z" fill="white"/>
<path d="M67.4423 49.1914C66.6749 48.8163 65.8539 48.452 64.9972 48.1087L64.0349 50.5025C64.8326 50.824 65.5976 51.1619 66.3083 51.5122L67.4423 49.1914Z" fill="white"/>
<path d="M46.4513 38.9415V38.7085C47.8196 38.7071 49.1316 38.1629 50.0992 37.1953C51.0668 36.2277 51.611 34.9158 51.6124 33.5474V24.5159C51.6097 22.2641 50.953 20.0616 49.7222 18.1761C48.4913 16.2905 46.7392 14.8031 44.6788 13.8945C45.9706 12.9147 46.9222 11.554 47.3993 10.0045C47.8764 8.45494 47.855 6.79469 47.3382 5.25794C46.8213 3.72119 45.835 2.38549 44.5184 1.43926C43.2018 0.493026 41.6213 -0.0159912 40 -0.0159912C38.3787 -0.0159912 36.7982 0.493026 35.4816 1.43926C34.165 2.38549 33.1787 3.72119 32.6618 5.25794C32.1449 6.79469 32.1236 8.45494 32.6007 10.0045C33.0778 11.554 34.0294 12.9147 35.3212 13.8945C33.2608 14.8029 31.5086 16.2902 30.2776 18.1756C29.0466 20.061 28.3897 22.2634 28.3868 24.5151V33.5481C28.3882 34.9165 28.9325 36.2285 29.9001 37.196C30.8676 38.1636 32.1796 38.7079 33.548 38.7093V38.9423C14.0373 40.3326 0 47.7423 0 56.7761V61.9373C0 72.0654 17.5705 79.9994 40 79.9994C62.4295 79.9994 80 72.0654 80 61.9349V56.7761C80 47.7423 65.9627 40.3326 46.4513 38.9415ZM37.419 59.354C38.3749 59.3498 39.295 58.9899 40 58.3443C40.5532 58.8484 41.2413 59.1807 41.9801 59.3004C42.719 59.42 43.4767 59.322 44.1608 59.0183C44.8449 58.7145 45.4258 58.2182 45.8325 57.5898C46.2393 56.9615 46.4543 56.2283 46.4513 55.4798V52.54C49.5534 53.5179 51.6124 55.1582 51.6124 56.7738C51.6124 59.2149 46.8435 61.9349 39.9992 61.9349C33.1549 61.9349 28.3868 59.2149 28.3868 56.7761C28.3868 55.1606 30.4458 53.521 33.548 52.5423V55.4852C33.5498 56.5111 33.9583 57.4944 34.684 58.2196C35.4096 58.9448 36.3931 59.3527 37.419 59.354ZM34.8388 7.74154C34.8388 6.72076 35.1415 5.7229 35.7086 4.87415C36.2758 4.0254 37.0818 3.36388 38.0249 2.97324C38.968 2.58261 40.0057 2.4804 41.0069 2.67954C42.0081 2.87869 42.9277 3.37024 43.6495 4.09204C44.3713 4.81384 44.8629 5.73348 45.062 6.73464C45.2611 7.73581 45.1589 8.77355 44.7683 9.71663C44.3777 10.6597 43.7161 11.4658 42.8674 12.0329C42.0186 12.6 41.0208 12.9027 40 12.9027C38.6316 12.9013 37.3197 12.357 36.3521 11.3894C35.3845 10.4218 34.8403 9.10992 34.8388 7.74154ZM30.9678 33.5481V24.5159C30.9678 22.1204 31.9194 19.823 33.6132 18.1292C35.3071 16.4353 37.6045 15.4837 40 15.4837C42.3955 15.4837 44.6929 16.4353 46.3868 18.1292C48.0806 19.823 49.0322 22.1204 49.0322 24.5159V33.5481C49.0316 34.2325 48.7595 34.8886 48.2756 35.3725C47.7917 35.8564 47.1356 36.1285 46.4513 36.1291V24.5159H43.8711V55.4829C43.8711 55.8252 43.7351 56.1534 43.4931 56.3954C43.2511 56.6374 42.9228 56.7734 42.5806 56.7734C42.2383 56.7734 41.9101 56.6374 41.6681 56.3954C41.4261 56.1534 41.2901 55.8252 41.2901 55.4829V36.1283H38.7099V55.4829C38.7099 55.8252 38.5739 56.1534 38.3319 56.3954C38.0899 56.6374 37.7617 56.7734 37.4194 56.7734C37.0772 56.7734 36.7489 56.6374 36.5069 56.3954C36.2649 56.1534 36.1289 55.8252 36.1289 55.4829V24.5159H33.5487V36.1283C32.8645 36.1277 32.2085 35.8557 31.7247 35.372C31.2408 34.8883 30.9686 34.2323 30.9678 33.5481ZM33.5487 41.5287V49.8448C28.7464 51.1342 25.8066 53.7361 25.8066 56.7738C25.8066 61.1147 32.0412 64.5159 40 64.5159C47.9588 64.5159 54.1934 61.114 54.1934 56.7761C54.1934 53.7384 51.2544 51.1365 46.4513 49.8472V41.5287C63.927 42.8258 77.419 49.4099 77.419 56.7738C77.419 65.1676 60.2835 72.2573 40 72.2573C19.7165 72.2573 2.58097 65.1645 2.58097 56.7761C2.58097 49.4099 16.0777 42.825 33.5487 41.5287ZM40 77.4184C20.9934 77.4184 4.75262 71.1924 2.78214 63.5039C8.57786 70.2045 22.866 74.8382 40 74.8382C57.134 74.8382 71.4221 70.2045 77.2179 63.5039C75.2474 71.1932 59.0066 77.4184 40 77.4184Z" fill="white"/>
</g>
<defs>
<clipPath id="clip0_97:94">
<rect width="80" height="80" fill="white"/>
</clipPath>
</defs>
</svg>
